…
birthday_results
```

    ## # A tibble: 49 × 2
    ##    group_size prob_match
    ##         <int>      <dbl>
    ##  1          2     0.0024
    ##  2          3     0.0085
    ##  3          4     0.0167
    ##  4          5     0.0267
    ##  5          6     0.0399
    ##  6          7     0.0521
    ##  7          8     0.0751
    ##  8          9     0.0925
    ##  9         10     0.116 
    ## 10         11     0.139 
    ## # ℹ 39 more rows
…
------------------------------------------------------------------------

# Problem 3

``` r
homicide_raw =
  read_csv("homicide-data.csv") %>%   
  janitor::clean_names()

homicide_raw
```

    ## # A tibble: 52,179 × 12
    ##    uid        reported_date victim_last  victim_first victim_race victim_age
    ##    <chr>              <dbl> <chr>        <chr>        <chr>       <chr>     
    ##  1 Alb-000001      20100504 GARCIA       JUAN         Hispanic    78        
    ##  2 Alb-000002      20100216 MONTOYA      CAMERON      Hispanic    17        
    ##  3 Alb-000003      20100601 SATTERFIELD  VIVIANA      White       15        
    ##  4 Alb-000004      20100101 MENDIOLA     CARLOS       Hispanic    32        
    ##  5 Alb-000005      20100102 MULA         VIVIAN       White       72        
    ##  6 Alb-000006      20100126 BOOK         GERALDINE    White       91        
    ##  7 Alb-000007      20100127 MALDONADO    DAVID        Hispanic    52        
    ##  8 Alb-000008      20100127 MALDONADO    CONNIE       Hispanic    52        
    ##  9 Alb-000009      20100130 MARTIN-LEYVA GUSTAVO      White       56        
    ## 10 Alb-000010      20100210 HERRERA      ISRAEL       Hispanic    43        
    ## # ℹ 52,169 more rows
    ## # ℹ 6 more variables: victim_sex <chr>, city <chr>, state <chr>, lat <dbl>,
    ## #   lon <dbl>, disposition <chr>
…
homicide_city
```

    ## # A tibble: 51 × 3
    ##    city_state      total_homicides unsolved
    ##    <chr>                     <int>    <int>
    ##  1 Albuquerque, NM             378      146
    ##  2 Atlanta, GA                 973      373
    ##  3 Baltimore, MD              2827     1825
    ##  4 Baton Rouge, LA             424      196
    ##  5 Birmingham, AL              800      347
    ##  6 Boston, MA                  614      310
    ##  7 Buffalo, NY                 521      319
    ##  8 Charlotte, NC               687      206
    ##  9 Chicago, IL                5535     4073
    ## 10 Cincinnati, OH              694      309
    ## # ℹ 41 more rows
…
city_results
```

    ## # A tibble: 51 × 12
    ##    city_state    total_homicides unsolved prop_test estimate statistic   p.value
    ##    <chr>                   <int>    <int> <list>       <dbl>     <dbl>     <dbl>
    ##  1 Albuquerque,…             378      146 <htest>      0.386   19.1    1.23e-  5
    ##  2 Atlanta, GA               973      373 <htest>      0.383   52.5    4.32e- 13
    ##  3 Baltimore, MD            2827     1825 <htest>      0.646  239.     6.46e- 54
    ##  4 Baton Rouge,…             424      196 <htest>      0.462    2.27   1.32e-  1
    ##  5 Birmingham, …             800      347 <htest>      0.434   13.8    2.05e-  4
    ##  6 Boston, MA                614      310 <htest>      0.505    0.0407 8.40e-  1
    ##  7 Buffalo, NY               521      319 <htest>      0.612   25.8    3.73e-  7
    ##  8 Charlotte, NC             687      206 <htest>      0.300  109.     1.41e- 25
    ##  9 Chicago, IL              5535     4073 <htest>      0.736 1231.     1.28e-269
    ## 10 Cincinnati, …             694      309 <htest>      0.445    8.11   4.41e-  3
    ## # ℹ 41 more rows
    ## # ℹ 5 more variables: parameter <int>, conf.low <dbl>, conf.high <dbl>,
    ## #   method <chr>, alternative <chr>
…
